SUMO R package - general use
…
Running a search

Now that we have constructed our query, running a search is achieved
by calling the following functions:

hits <- searchPubmed(searchStrategy)

res <- fetchPubmed(hits, searchStrategy)

res
#> # A tibble: 237 × 10
#>    pmid     title        journal year  doi   abstract key_words count totalCount
#>    <chr>    <chr>        <chr>   <chr> <chr> <chr>    <chr>     <int>      <int>
#>  1 23364878 Optimal rec… Americ… 2013  10.1… "Many c… Adult; A…   237      32855
#>  2 23390525 Outbreak of… PloS o… 2013  10.1… "Shiga … Adolesce…   237      32855
#>  3 23405194 Real time b… PloS o… 2013  10.1… "We dem… Algorith…   237      32855
#>  4 23460784 Symptoms an… PloS o… 2013  10.1… "Shiga-… Adult; B…   237      32855
#>  5 23469126 Low vitamin… PloS o… 2013  10.1… "Vitami… Adolesce…   237      32855
#>  6 23533606 Risk factor… PloS o… 2013  10.1… "The ou… Adult; E…   237      32855
#>  7 23554855 Outcomes of… PloS o… 2013  10.1… "Previo… Adolesce…   237      32855
#>  8 23555926 Risk factor… PloS o… 2013  10.1… "Anemia… Adult; A…   237      32855
#>  9 23593217 MicroRNA-48… PloS o… 2013  10.1… "MicroR… Alternat…   237      32855
#> 10 23593351 Expression … PloS o… 2013  10.1… "Increa… Adult; A…   237      32855
#> # ℹ 227 more rows
#> # ℹ 1 more variable: epubdate <date>

We see that our res object does not yet have any back mapping to the
OMOP CDM, which can be achieved by creating a dictionary of OMOP concept
codes found within the results object:

resDict <- makeDict(res, cdm, rollup = TRUE)

res <- addDictToRes(res, resDict)

res
#> # A tibble: 237 × 13
#> # Rowwise: 
#>    pmid     title journal year  doi   abstract key_words conceptIds conceptNames
#>    <chr>    <chr> <chr>   <chr> <chr> <chr>    <chr>     <chr>      <chr>       
#>  1 23364878 Opti… Americ… 2013  10.1… "Many c… Adult; A… 4158493; … C/O - cough…
#>  2 23390525 Outb… PloS o… 2013  10.1… "Shiga … Adolesce… 197253     Hemolytic u…
#>  3 23405194 Real… PloS o… 2013  10.1… "We dem… Algorith… 4308125; … Macrocytic …
#>  4 23460784 Symp… PloS o… 2013  10.1… "Shiga-… Adult; B… 4037672; … Ultrasonogr…
#>  5 23469126 Low … PloS o… 2013  10.1… "Vitami… Adolesce… 4030871; … Red blood c…
#>  6 23533606 Risk… PloS o… 2013  10.1… "The ou… Adult; E… 440320; 1… Infection d…
#>  7 23554855 Outc… PloS o… 2013  10.1… "Previo… Adolesce… 4119473; … Hematopoiet…
#>  8 23555926 Risk… PloS o… 2013  10.1… "Anemia… Adult; A… 439727; 1… Human immun…
#>  9 23593217 Micr… PloS o… 2013  10.1… "MicroR… Alternat… 4339104; … Hemoglobin …
#> 10 23593351 Expr… PloS o… 2013  10.1… "Increa… Adult; A… 4006971; … Tricuspid v…
#> # ℹ 227 more rows
#> # ℹ 4 more variables: count <int>, totalCount <int>, epubdate <date>,
#> #   concepts <chr>
…
